<?xml version="1.0" encoding="utf-8"?>
<!-- Generated by IcoMoon.io -->
<!DOCTYPE svg PUBLIC "-//W3C//DTD SVG 1.1//EN" "http://www.w3.org/Graphics/SVG/1.1/DTD/svg11.dtd">
<svg version="1.1" xmlns="http://www.w3.org/2000/svg" xmlns:xlink="http://www.w3.org/1999/xlink" width="32" height="32" viewBox="0 0 32 32">
<path fill="#444444" d="M13.333 4h-2.667c0 0.487-0.060 0.96-0.16 1.42l2.127 2.127c0.447-1.1 0.7-2.293 0.7-3.547zM4 5.7l3.787 3.787c-1.080 0.74-2.38 1.18-3.787 1.18v2.667c2.147 0 4.113-0.733 5.687-1.947l1.9 1.9c-2.060 1.693-4.707 2.713-7.587 2.713v2.667c3.62 0 6.927-1.313 9.48-3.487l3.34 3.34c-2.173 2.553-3.487 5.86-3.487 9.48h2.667c0-2.88 1.020-5.527 2.713-7.593l1.9 1.9c-1.213 1.58-1.947 3.547-1.947 5.693h2.667c0-1.407 0.44-2.707 1.187-3.787l3.787 3.787 1.693-1.7-22.3-22.3-1.7 1.7zM18.667 4h-2.667c0 2-0.5 3.887-1.367 5.547l1.953 1.953c1.313-2.2 2.080-4.753 2.080-7.5zM26.58 21.493c0.46-0.1 0.933-0.16 1.42-0.16v-2.667c-1.253 0-2.447 0.253-3.54 0.7l2.12 2.127zM20.5 15.413l1.953 1.953c1.66-0.867 3.547-1.367 5.547-1.367v-2.667c-2.747 0-5.3 0.767-7.5 2.080z"></path>
</svg>
