<?xml version="1.0" encoding="utf-8"?>
<!-- Generated by IcoMoon.io -->
<!DOCTYPE svg PUBLIC "-//W3C//DTD SVG 1.1//EN" "http://www.w3.org/Graphics/SVG/1.1/DTD/svg11.dtd">
<svg version="1.1" xmlns="http://www.w3.org/2000/svg" xmlns:xlink="http://www.w3.org/1999/xlink" width="32" height="32" viewBox="0 0 32 32">
<path fill="#444444" d="M16 12c-2.14 0-4.2 0.333-6.133 0.96v4.14c0 0.527-0.307 0.98-0.747 1.2-1.3 0.653-2.493 1.487-3.553 2.467-0.24 0.233-0.567 0.38-0.933 0.38s-0.7-0.147-0.94-0.393l-3.3-3.3c-0.247-0.247-0.393-0.58-0.393-0.947s0.147-0.7 0.393-0.947c4.060-3.86 9.56-6.227 15.607-6.227s11.547 2.367 15.607 6.227c0.247 0.24 0.393 0.58 0.393 0.947s-0.147 0.7-0.393 0.94l-3.3 3.3c-0.24 0.24-0.573 0.393-0.94 0.393-0.36 0-0.693-0.147-0.933-0.38-1.060-0.98-2.253-1.813-3.553-2.467-0.44-0.22-0.747-0.673-0.747-1.2v-4.14c-1.933-0.62-3.993-0.953-6.133-0.953z"></path>
</svg>
