<?xml version="1.0" encoding="utf-8"?>
<!-- Generated by IcoMoon.io -->
<!DOCTYPE svg PUBLIC "-//W3C//DTD SVG 1.1//EN" "http://www.w3.org/Graphics/SVG/1.1/DTD/svg11.dtd">
<svg version="1.1" xmlns="http://www.w3.org/2000/svg" xmlns:xlink="http://www.w3.org/1999/xlink" width="32" height="32" viewBox="0 0 32 32">
<path fill="#444444" d="M16 2.667c-7.367 0-13.333 5.967-13.333 13.333s5.967 13.333 13.333 13.333 13.333-5.967 13.333-13.333-5.967-13.333-13.333-13.333zM16 26.667c-5.893 0-10.667-4.773-10.667-10.667 0-2.467 0.847-4.727 2.247-6.533l14.953 14.953c-1.807 1.4-4.067 2.247-6.533 2.247zM24.42 22.533l-14.953-14.953c1.807-1.4 4.067-2.247 6.533-2.247 5.893 0 10.667 4.773 10.667 10.667 0 2.467-0.847 4.727-2.247 6.533z"></path>
</svg>
