<?xml version="1.0" encoding="utf-8"?>
<!-- Generated by IcoMoon.io -->
<!DOCTYPE svg PUBLIC "-//W3C//DTD SVG 1.1//EN" "http://www.w3.org/Graphics/SVG/1.1/DTD/svg11.dtd">
<svg version="1.1" xmlns="http://www.w3.org/2000/svg" xmlns:xlink="http://www.w3.org/1999/xlink" width="32" height="32" viewBox="0 0 32 32">
<path fill="#444444" d="M21.333 22.68v-9.347h-2.667v9.347h-4l5.333 5.32 5.333-5.32h-4zM12 4l-5.333 5.32h4v9.347h2.667v-9.347h4l-5.333-5.32z"></path>
</svg>
