<?xml version="1.0" encoding="utf-8"?>
<!-- Generated by IcoMoon.io -->
<!DOCTYPE svg PUBLIC "-//W3C//DTD SVG 1.1//EN" "http://www.w3.org/Graphics/SVG/1.1/DTD/svg11.dtd">
<svg version="1.1" xmlns="http://www.w3.org/2000/svg" xmlns:xlink="http://www.w3.org/1999/xlink" width="32" height="32" viewBox="0 0 32 32">
<path fill="#444444" d="M4 12v8h5.333l6.667 6.667v-21.333l-6.667 6.667h-5.333zM22 16c0-2.353-1.36-4.387-3.333-5.367v10.74c1.973-0.987 3.333-3.020 3.333-5.373zM18.667 4.307v2.753c3.853 1.147 6.667 4.713 6.667 8.94s-2.813 7.793-6.667 8.94v2.753c5.34-1.213 9.333-5.98 9.333-11.693s-3.993-10.48-9.333-11.693z"></path>
</svg>
