<?xml version="1.0" encoding="utf-8"?>
<!-- Generated by IcoMoon.io -->
<!DOCTYPE svg PUBLIC "-//W3C//DTD SVG 1.1//EN" "http://www.w3.org/Graphics/SVG/1.1/DTD/svg11.dtd">
<svg version="1.1" xmlns="http://www.w3.org/2000/svg" xmlns:xlink="http://www.w3.org/1999/xlink" width="32" height="32" viewBox="0 0 32 32">
<path fill="#444444" d="M26.587 28.16c-1.46-3.92-2.193-8.040-2.193-12.16s0.733-8.24 2.193-12.16c0.053-0.147 0.080-0.287 0.080-0.42 0-0.44-0.313-0.753-0.833-0.753h-19.667c-0.52 0.007-0.833 0.313-0.833 0.753 0 0.127 0.027 0.267 0.080 0.413 1.46 3.92 2.193 8.040 2.193 12.16s-0.733 8.24-2.193 12.16c-0.053 0.153-0.080 0.293-0.080 0.427 0 0.44 0.313 0.753 0.833 0.753h19.667c0.52 0 0.833-0.32 0.833-0.76 0-0.127-0.027-0.267-0.080-0.413zM8.727 26.667c1.027-3.46 1.547-7.040 1.547-10.667s-0.52-7.2-1.547-10.667h14.547c-1.027 3.46-1.547 7.040-1.547 10.667s0.52 7.2 1.547 10.667h-14.547z"></path>
</svg>
