<?xml version="1.0" encoding="utf-8"?>
<!-- Generated by IcoMoon.io -->
<!DOCTYPE svg PUBLIC "-//W3C//DTD SVG 1.1//EN" "http://www.w3.org/Graphics/SVG/1.1/DTD/svg11.dtd">
<svg version="1.1" xmlns="http://www.w3.org/2000/svg" xmlns:xlink="http://www.w3.org/1999/xlink" width="32" height="32" viewBox="0 0 32 32">
<path fill="#444444" d="M26.667 2.667h-16c-1.473 0-2.667 1.193-2.667 2.667v16c0 1.473 1.193 2.667 2.667 2.667h16c1.473 0 2.667-1.193 2.667-2.667v-16c0-1.473-1.193-2.667-2.667-2.667zM24 9.333h-4v7.333c0 1.84-1.493 3.333-3.333 3.333s-3.333-1.493-3.333-3.333 1.493-3.333 3.333-3.333c0.753 0 1.44 0.26 2 0.68v-7.347h5.333v2.667zM5.333 8h-2.667v18.667c0 1.473 1.193 2.667 2.667 2.667h18.667v-2.667h-18.667v-18.667z"></path>
</svg>
