<?xml version="1.0" encoding="utf-8"?>
<!-- Generated by IcoMoon.io -->
<!DOCTYPE svg PUBLIC "-//W3C//DTD SVG 1.1//EN" "http://www.w3.org/Graphics/SVG/1.1/DTD/svg11.dtd">
<svg version="1.1" xmlns="http://www.w3.org/2000/svg" xmlns:xlink="http://www.w3.org/1999/xlink" width="32" height="32" viewBox="0 0 32 32">
<path fill="#444444" d="M20.887 5.333h-2.22v-2.667h-5.333v2.667h-2.22c-0.987 0-1.78 0.793-1.78 1.78v20.447c0 0.98 0.793 1.78 1.78 1.78h9.78c0.98 0 1.78-0.793 1.78-1.78v-20.447c-0.007-0.987-0.8-1.78-1.787-1.78zM17.267 23.933h-2.533v-2.533h2.533v2.533zM19.067 16.92s-0.507 0.56-0.893 0.947c-0.647 0.647-1.107 1.527-1.107 2.133h-2.133c0-1.107 0.613-2.033 1.24-2.66l1.24-1.26c0.36-0.36 0.587-0.86 0.587-1.413 0-1.107-0.893-2-2-2s-2 0.893-2 2h-2c0-2.207 1.793-4 4-4s4 1.793 4 4c0 0.88-0.353 1.68-0.933 2.253z"></path>
</svg>
