<?xml version="1.0" encoding="utf-8"?>
<!-- Generated by IcoMoon.io -->
<!DOCTYPE svg PUBLIC "-//W3C//DTD SVG 1.1//EN" "http://www.w3.org/Graphics/SVG/1.1/DTD/svg11.dtd">
<svg version="1.1" xmlns="http://www.w3.org/2000/svg" xmlns:xlink="http://www.w3.org/1999/xlink" width="32" height="32" viewBox="0 0 32 32">
<path fill="#444444" d="M9.32 14.667l-5.32 5.333 5.32 5.333v-4h9.347v-2.667h-9.347v-4zM28 12l-5.32-5.333v4h-9.347v2.667h9.347v4l5.32-5.333z"></path>
</svg>
