<?xml version="1.0" encoding="utf-8"?>
<!-- Generated by IcoMoon.io -->
<!DOCTYPE svg PUBLIC "-//W3C//DTD SVG 1.1//EN" "http://www.w3.org/Graphics/SVG/1.1/DTD/svg11.dtd">
<svg version="1.1" xmlns="http://www.w3.org/2000/svg" xmlns:xlink="http://www.w3.org/1999/xlink" width="32" height="32" viewBox="0 0 32 32">
<path fill="#444444" d="M26.667 8h-2.913c0.147-0.42 0.247-0.867 0.247-1.333 0-2.207-1.793-4-4-4-1.393 0-2.62 0.713-3.333 1.793l-0.667 0.907-0.667-0.907c-0.713-1.080-1.94-1.793-3.333-1.793-2.207 0-4 1.793-4 4 0 0.467 0.093 0.913 0.247 1.333h-2.913c-1.473 0-2.653 1.193-2.653 2.667l-0.013 14.667c0 1.473 1.193 2.667 2.667 2.667h21.333c1.473 0 2.667-1.193 2.667-2.667v-14.667c0-1.473-1.193-2.667-2.667-2.667zM20 5.333c0.733 0 1.333 0.6 1.333 1.333s-0.6 1.333-1.333 1.333-1.333-0.6-1.333-1.333 0.6-1.333 1.333-1.333zM12 5.333c0.733 0 1.333 0.6 1.333 1.333s-0.6 1.333-1.333 1.333-1.333-0.6-1.333-1.333 0.6-1.333 1.333-1.333zM26.667 25.333h-21.333v-2.667h21.333v2.667zM26.667 18.667h-21.333v-8h6.773l-2.773 3.78 2.167 1.553 4.5-6.127 1.333 1.813 3.167 4.313 2.167-1.553-2.773-3.78h6.773v8z"></path>
</svg>
