<?xml version="1.0" encoding="utf-8"?>
<!-- Generated by IcoMoon.io -->
<!DOCTYPE svg PUBLIC "-//W3C//DTD SVG 1.1//EN" "http://www.w3.org/Graphics/SVG/1.1/DTD/svg11.dtd">
<svg version="1.1" xmlns="http://www.w3.org/2000/svg" xmlns:xlink="http://www.w3.org/1999/xlink" width="32" height="32" viewBox="0 0 32 32">
<path fill="#444444" d="M24 10.667c0-4.42-3.58-8-8-8s-8 3.58-8 8c0 6 8 14.667 8 14.667s8-8.667 8-14.667zM13.333 10.667c0-1.473 1.193-2.667 2.667-2.667s2.667 1.193 2.667 2.667-1.193 2.667-2.667 2.667-2.667-1.193-2.667-2.667zM6.667 26.667v2.667h18.667v-2.667h-18.667z"></path>
</svg>
