<?xml version="1.0" encoding="utf-8"?>
<!-- Generated by IcoMoon.io -->
<!DOCTYPE svg PUBLIC "-//W3C//DTD SVG 1.1//EN" "http://www.w3.org/Graphics/SVG/1.1/DTD/svg11.dtd">
<svg version="1.1" xmlns="http://www.w3.org/2000/svg" xmlns:xlink="http://www.w3.org/1999/xlink" width="32" height="32" viewBox="0 0 32 32">
<path fill="#444444" d="M16 13.333c-5.147 0-9.333 4.187-9.333 9.333h2.667c0-3.673 2.993-6.667 6.667-6.667s6.667 2.993 6.667 6.667h2.667c0-5.147-4.187-9.333-9.333-9.333zM16 8c-8.087 0-14.667 6.58-14.667 14.667h2.667c0-6.613 5.387-12 12-12s12 5.387 12 12h2.667c0-8.087-6.58-14.667-14.667-14.667z"></path>
</svg>
