<?xml version="1.0" encoding="utf-8"?>
<!-- Generated by IcoMoon.io -->
<!DOCTYPE svg PUBLIC "-//W3C//DTD SVG 1.1//EN" "http://www.w3.org/Graphics/SVG/1.1/DTD/svg11.dtd">
<svg version="1.1" xmlns="http://www.w3.org/2000/svg" xmlns:xlink="http://www.w3.org/1999/xlink" width="32" height="32" viewBox="0 0 32 32">
<path fill="#444444" d="M5.333 14.667h6.667v-8h-6.667v8zM5.333 24h6.667v-8h-6.667v8zM13.333 24h6.667v-8h-6.667v8zM21.333 24h6.667v-8h-6.667v8zM13.333 14.667h6.667v-8h-6.667v8zM21.333 6.667v8h6.667v-8h-6.667z"></path>
</svg>
