<?xml version="1.0" encoding="utf-8"?>
<!-- Generated by IcoMoon.io -->
<!DOCTYPE svg PUBLIC "-//W3C//DTD SVG 1.1//EN" "http://www.w3.org/Graphics/SVG/1.1/DTD/svg11.dtd">
<svg version="1.1" xmlns="http://www.w3.org/2000/svg" xmlns:xlink="http://www.w3.org/1999/xlink" width="32" height="32" viewBox="0 0 32 32">
<path fill="#444444" d="M18.667 16c0-1.473-1.193-2.667-2.667-2.667s-2.667 1.193-2.667 2.667 1.193 2.667 2.667 2.667 2.667-1.193 2.667-2.667zM16 4c-6.627 0-12 5.373-12 12h-4l5.333 5.333 5.333-5.333h-4c0-5.153 4.18-9.333 9.333-9.333s9.333 4.18 9.333 9.333-4.18 9.333-9.333 9.333c-2.020 0-3.88-0.647-5.413-1.74l-1.887 1.913c2.027 1.56 4.553 2.493 7.3 2.493 6.627 0 12-5.373 12-12s-5.373-12-12-12z"></path>
</svg>
