<?xml version="1.0" encoding="utf-8"?>
<!-- Generated by IcoMoon.io -->
<!DOCTYPE svg PUBLIC "-//W3C//DTD SVG 1.1//EN" "http://www.w3.org/Graphics/SVG/1.1/DTD/svg11.dtd">
<svg version="1.1" xmlns="http://www.w3.org/2000/svg" xmlns:xlink="http://www.w3.org/1999/xlink" width="32" height="32" viewBox="0 0 32 32">
<path fill="#444444" d="M27.333 4c-0.073 0-0.14 0.007-0.207 0.033l-7.127 2.767-8-2.8-7.513 2.533c-0.28 0.093-0.487 0.333-0.487 0.64v20.16c0 0.367 0.3 0.667 0.667 0.667 0.073 0 0.14-0.007 0.207-0.033l7.127-2.767 8 2.8 7.52-2.527c0.28-0.1 0.48-0.34 0.48-0.647v-20.16c0-0.367-0.3-0.667-0.667-0.667zM20 25.333l-8-2.807v-15.86l8 2.807v15.86z"></path>
</svg>
