<?xml version="1.0" encoding="utf-8"?>
<!-- Generated by IcoMoon.io -->
<!DOCTYPE svg PUBLIC "-//W3C//DTD SVG 1.1//EN" "http://www.w3.org/Graphics/SVG/1.1/DTD/svg11.dtd">
<svg version="1.1" xmlns="http://www.w3.org/2000/svg" xmlns:xlink="http://www.w3.org/1999/xlink" width="32" height="32" viewBox="0 0 32 32">
<path fill="#444444" d="M28 6.667h-24c-1.473 0-2.667 1.193-2.667 2.667v13.333c0 1.473 1.193 2.667 2.667 2.667h24c1.473 0 2.667-1.193 2.667-2.667v-13.333c0-1.473-1.193-2.667-2.667-2.667zM25.333 22.667h-18.667v-13.333h18.667v13.333zM13.333 21.333h5.333c0.74 0 1.333-0.6 1.333-1.333v-4c0-0.733-0.593-1.333-1.333-1.333v-1.333c0-1.473-1.193-2.667-2.667-2.667s-2.667 1.193-2.667 2.667v1.333c-0.74 0-1.333 0.6-1.333 1.333v4c0 0.733 0.593 1.333 1.333 1.333zM14.4 13.333c0-0.887 0.713-1.6 1.6-1.6s1.6 0.72 1.6 1.6v1.333h-3.2v-1.333z"></path>
</svg>
