<?xml version="1.0" encoding="utf-8"?>
<!-- Generated by IcoMoon.io -->
<!DOCTYPE svg PUBLIC "-//W3C//DTD SVG 1.1//EN" "http://www.w3.org/Graphics/SVG/1.1/DTD/svg11.dtd">
<svg version="1.1" xmlns="http://www.w3.org/2000/svg" xmlns:xlink="http://www.w3.org/1999/xlink" width="32" height="32" viewBox="0 0 32 32">
<path fill="#444444" d="M24 22.667l-19.64-19.633-1.693 1.693 5.333 5.333v4.607h-2.667v-5.333h-2.667v13.333h2.667v-5.333h2.667v5.333h2.667v-9.94l1.333 1.333v8.607h5.333c0.893 0 1.673-0.44 2.16-1.113l8.447 8.447 1.693-1.7-5.633-5.633zM17.333 20h-2.667v-3.273l2.667 2.667v0.607zM24 17.333h1.333l1.093 4.36 0.967 0.973h1.94l-1.587-5.567c0.933-0.413 1.587-1.347 1.587-2.433v-2.667c0-1.473-1.193-2.667-2.667-2.667h-5.333v7.273l2.667 2.667v-1.94zM24 12h2.667v2.667h-2.667v-2.667zM20 15.273v-3.273c0-1.473-1.193-2.667-2.667-2.667h-3.273l5.94 5.94z"></path>
</svg>
