<?xml version="1.0" encoding="utf-8"?>
<!-- Generated by IcoMoon.io -->
<!DOCTYPE svg PUBLIC "-//W3C//DTD SVG 1.1//EN" "http://www.w3.org/Graphics/SVG/1.1/DTD/svg11.dtd">
<svg version="1.1" xmlns="http://www.w3.org/2000/svg" xmlns:xlink="http://www.w3.org/1999/xlink" width="32" height="32" viewBox="0 0 32 32">
<path fill="#444444" d="M29.333 8v-2.667h-20.24l2.667 2.667h17.573zM2.56 2.193l-1.7 1.7 2.42 2.42c-0.373 0.46-0.613 1.047-0.613 1.687v14.667h-2.667v4h23.64l3.14 3.14 1.693-1.7-25.913-25.913zM5.333 8.367l14.307 14.3h-14.307v-14.3zM30.667 10.667h-8c-0.733 0-1.333 0.6-1.333 1.333v5.573l2.667 2.667v-6.907h5.333v9.333h-2.907l4 4h0.24c0.733 0 1.333-0.6 1.333-1.333v-13.333c0-0.733-0.6-1.333-1.333-1.333z"></path>
</svg>
