<?xml version="1.0" encoding="utf-8"?>
<!-- Generated by IcoMoon.io -->
<!DOCTYPE svg PUBLIC "-//W3C//DTD SVG 1.1//EN" "http://www.w3.org/Graphics/SVG/1.1/DTD/svg11.dtd">
<svg version="1.1" xmlns="http://www.w3.org/2000/svg" xmlns:xlink="http://www.w3.org/1999/xlink" width="32" height="32" viewBox="0 0 32 32">
<path fill="#444444" d="M28 1.333l-11.453 11.453 11.453 11.453v-22.907zM6.367 6l-1.7 1.693 8.487 8.487-11.82 11.82h23.633l2.667 2.667 1.7-1.7-22.967-22.967z"></path>
</svg>
