<?xml version="1.0" encoding="utf-8"?>
<!-- Generated by IcoMoon.io -->
<!DOCTYPE svg PUBLIC "-//W3C//DTD SVG 1.1//EN" "http://www.w3.org/Graphics/SVG/1.1/DTD/svg11.dtd">
<svg version="1.1" xmlns="http://www.w3.org/2000/svg" xmlns:xlink="http://www.w3.org/1999/xlink" width="32" height="32" viewBox="0 0 32 32">
<path fill="#444444" d="M28 8h-2.667v12h-17.333v2.667c0 0.733 0.6 1.333 1.333 1.333h14.667l5.333 5.333v-20c0-0.733-0.6-1.333-1.333-1.333zM22.667 16v-12c0-0.733-0.6-1.333-1.333-1.333h-17.333c-0.733 0-1.333 0.6-1.333 1.333v18.667l5.333-5.333h13.333c0.733 0 1.333-0.6 1.333-1.333z"></path>
</svg>
