<?xml version="1.0" encoding="utf-8"?>
<!-- Generated by IcoMoon.io -->
<!DOCTYPE svg PUBLIC "-//W3C//DTD SVG 1.1//EN" "http://www.w3.org/Graphics/SVG/1.1/DTD/svg11.dtd">
<svg version="1.1" xmlns="http://www.w3.org/2000/svg" xmlns:xlink="http://www.w3.org/1999/xlink" width="32" height="32" viewBox="0 0 32 32">
<path fill="#444444" d="M2.667 28h25.333v-4h-25.333v4zM26.667 10.667h-22.667c-0.733 0-1.333 0.6-1.333 1.333v8c0 0.733 0.6 1.333 1.333 1.333h22.667c0.733 0 1.333-0.6 1.333-1.333v-8c0-0.733-0.6-1.333-1.333-1.333zM2.667 4v4h25.333v-4h-25.333z"></path>
</svg>
