<?xml version="1.0" encoding="utf-8"?>
<!-- Generated by IcoMoon.io -->
<!DOCTYPE svg PUBLIC "-//W3C//DTD SVG 1.1//EN" "http://www.w3.org/Graphics/SVG/1.1/DTD/svg11.dtd">
<svg version="1.1" xmlns="http://www.w3.org/2000/svg" xmlns:xlink="http://www.w3.org/1999/xlink" width="32" height="32" viewBox="0 0 32 32">
<path fill="#444444" d="M25.333 2.667h-18.667c-1.473 0-2.667 1.193-2.667 2.667v18.667c0 1.473 1.193 2.667 2.667 2.667h5.333l4 4 4-4h5.333c1.473 0 2.667-1.193 2.667-2.667v-18.667c0-1.473-1.193-2.667-2.667-2.667zM16 7.067c1.987 0 3.6 1.613 3.6 3.6s-1.613 3.6-3.6 3.6c-1.987 0-3.6-1.613-3.6-3.6s1.613-3.6 3.6-3.6zM24 21.333h-16v-1.2c0-2.667 5.333-4.133 8-4.133s8 1.467 8 4.133v1.2z"></path>
</svg>
