<?xml version="1.0" encoding="utf-8"?>
<!-- Generated by IcoMoon.io -->
<!DOCTYPE svg PUBLIC "-//W3C//DTD SVG 1.1//EN" "http://www.w3.org/Graphics/SVG/1.1/DTD/svg11.dtd">
<svg version="1.1" xmlns="http://www.w3.org/2000/svg" xmlns:xlink="http://www.w3.org/1999/xlink" width="32" height="32" viewBox="0 0 32 32">
<path fill="#444444" d="M16.013 28.653l15.507-19.32c-0.6-0.453-6.567-5.333-15.52-5.333s-14.92 4.88-15.52 5.333l15.52 19.333 0.013-0.013zM6.387 16.687l9.613 11.98 0.007-0.013 9.607-11.967c-0.48-0.373-4.147-3.353-9.613-3.353s-9.133 2.98-9.613 3.353z"></path>
</svg>
