<?xml version="1.0" encoding="utf-8"?>
<!-- Generated by IcoMoon.io -->
<!DOCTYPE svg PUBLIC "-//W3C//DTD SVG 1.1//EN" "http://www.w3.org/Graphics/SVG/1.1/DTD/svg11.dtd">
<svg version="1.1" xmlns="http://www.w3.org/2000/svg" xmlns:xlink="http://www.w3.org/1999/xlink" width="32" height="32" viewBox="0 0 32 32">
<path fill="#444444" d="M22 16c0-2.353-1.36-4.387-3.333-5.367v2.947l3.273 3.273c0.040-0.28 0.060-0.567 0.060-0.853zM25.333 16c0 1.253-0.273 2.433-0.72 3.52l2.020 2.020c0.867-1.66 1.367-3.54 1.367-5.54 0-5.707-3.993-10.48-9.333-11.693v2.753c3.853 1.147 6.667 4.713 6.667 8.94zM5.7 4l-1.7 1.7 6.3 6.3h-6.3v8h5.333l6.667 6.667v-8.967l5.673 5.673c-0.893 0.687-1.9 1.24-3.007 1.573v2.753c1.833-0.42 3.507-1.26 4.913-2.413l2.72 2.713 1.7-1.7-22.3-22.3zM16 5.333l-2.787 2.787 2.787 2.787v-5.573z"></path>
</svg>
