<?xml version="1.0" encoding="utf-8"?>
<!-- Generated by IcoMoon.io -->
<!DOCTYPE svg PUBLIC "-//W3C//DTD SVG 1.1//EN" "http://www.w3.org/Graphics/SVG/1.1/DTD/svg11.dtd">
<svg version="1.1" xmlns="http://www.w3.org/2000/svg" xmlns:xlink="http://www.w3.org/1999/xlink" width="32" height="32" viewBox="0 0 32 32">
<path fill="#444444" d="M9.333 9.333h13.333v4l5.333-5.333-5.333-5.333v4h-16v8h2.667v-5.333zM22.667 22.667h-13.333v-4l-5.333 5.333 5.333 5.333v-4h16v-8h-2.667v5.333z"></path>
</svg>
