<?xml version="1.0" encoding="utf-8"?>
<!-- Generated by IcoMoon.io -->
<!DOCTYPE svg PUBLIC "-//W3C//DTD SVG 1.1//EN" "http://www.w3.org/Graphics/SVG/1.1/DTD/svg11.dtd">
<svg version="1.1" xmlns="http://www.w3.org/2000/svg" xmlns:xlink="http://www.w3.org/1999/xlink" width="32" height="32" viewBox="0 0 32 32">
<path fill="#444444" d="M28 4h-24c-1.473 0-2.667 1.193-2.667 2.667v16c0 1.473 1.193 2.667 2.667 2.667h6.667v2.667h10.667v-2.667h6.667c1.473 0 2.653-1.193 2.653-2.667l0.013-16c0-1.473-1.193-2.667-2.667-2.667zM28 22.667h-24v-16h24v16zM25.333 10.667h-14.667v2.667h14.667v-2.667zM25.333 16h-14.667v2.667h14.667v-2.667zM9.333 10.667h-2.667v2.667h2.667v-2.667zM9.333 16h-2.667v2.667h2.667v-2.667z"></path>
</svg>
