<?xml version="1.0" encoding="utf-8"?>
<!-- Generated by IcoMoon.io -->
<!DOCTYPE svg PUBLIC "-//W3C//DTD SVG 1.1//EN" "http://www.w3.org/Graphics/SVG/1.1/DTD/svg11.dtd">
<svg version="1.1" xmlns="http://www.w3.org/2000/svg" xmlns:xlink="http://www.w3.org/1999/xlink" width="32" height="32" viewBox="0 0 32 32">
<path fill="#444444" d="M26.667 26.113v-15.447l-8-8h-10.667c-1.473 0-2.653 1.193-2.653 2.667l-0.013 21.333c0 1.473 1.18 2.667 2.653 2.667h16.013c0.593 0 1.14-0.2 1.58-0.533l-5.913-5.913c-1.047 0.7-2.307 1.113-3.667 1.113-3.68 0-6.667-2.987-6.667-6.667s2.987-6.667 6.667-6.667 6.667 2.987 6.667 6.667c0 1.36-0.413 2.62-1.107 3.673l5.107 5.107zM12 17.333c0 2.207 1.793 4 4 4s4-1.793 4-4-1.793-4-4-4-4 1.793-4 4z"></path>
</svg>
