<?xml version="1.0" encoding="utf-8"?>
<!-- Generated by IcoMoon.io -->
<!DOCTYPE svg PUBLIC "-//W3C//DTD SVG 1.1//EN" "http://www.w3.org/Graphics/SVG/1.1/DTD/svg11.dtd">
<svg version="1.1" xmlns="http://www.w3.org/2000/svg" xmlns:xlink="http://www.w3.org/1999/xlink" width="32" height="32" viewBox="0 0 32 32">
<path fill="#444444" d="M26.667 20.42l4.42-4.42-4.42-4.42v-6.247h-6.247l-4.42-4.42-4.42 4.42h-6.247v6.247l-4.42 4.42 4.42 4.42v6.247h6.247l4.42 4.42 4.42-4.42h6.247v-6.247zM16 24v-16c4.42 0 8 3.58 8 8s-3.58 8-8 8z"></path>
</svg>
