<?xml version="1.0" encoding="utf-8"?>
<!-- Generated by IcoMoon.io -->
<!DOCTYPE svg PUBLIC "-//W3C//DTD SVG 1.1//EN" "http://www.w3.org/Graphics/SVG/1.1/DTD/svg11.dtd">
<svg version="1.1" xmlns="http://www.w3.org/2000/svg" xmlns:xlink="http://www.w3.org/1999/xlink" width="32" height="32" viewBox="0 0 32 32">
<path fill="#444444" d="M5.333 25.333h8v-2.667h-8v2.667zM26.667 6.667h-21.333v2.667h21.333v-2.667zM22.667 14.667h-17.333v2.667h17.667c1.473 0 2.667 1.193 2.667 2.667s-1.193 2.667-2.667 2.667h-3v-2.667l-4 4 4 4v-2.667h2.667c2.94 0 5.333-2.393 5.333-5.333s-2.393-5.333-5.333-5.333z"></path>
</svg>
