<?xml version="1.0" encoding="utf-8"?>
<!-- Generated by IcoMoon.io -->
<!DOCTYPE svg PUBLIC "-//W3C//DTD SVG 1.1//EN" "http://www.w3.org/Graphics/SVG/1.1/DTD/svg11.dtd">
<svg version="1.1" xmlns="http://www.w3.org/2000/svg" xmlns:xlink="http://www.w3.org/1999/xlink" width="32" height="32" viewBox="0 0 32 32">
<path fill="#444444" d="M27.92 14.78c-0.613-5.56-5.027-9.973-10.587-10.587v-2.747h-2.667v2.747c-5.56 0.613-9.973 5.027-10.587 10.587h-2.747v2.667h2.747c0.613 5.56 5.027 9.973 10.587 10.587v2.747h2.667v-2.747c5.56-0.613 9.973-5.027 10.587-10.587h2.747v-2.667h-2.747zM16 25.447c-5.153 0-9.333-4.18-9.333-9.333s4.18-9.333 9.333-9.333 9.333 4.18 9.333 9.333-4.18 9.333-9.333 9.333z"></path>
</svg>
