<?xml version="1.0" encoding="utf-8"?>
<!-- Generated by IcoMoon.io -->
<!DOCTYPE svg PUBLIC "-//W3C//DTD SVG 1.1//EN" "http://www.w3.org/Graphics/SVG/1.1/DTD/svg11.dtd">
<svg version="1.1" xmlns="http://www.w3.org/2000/svg" xmlns:xlink="http://www.w3.org/1999/xlink" width="32" height="32" viewBox="0 0 32 32">
<path fill="#444444" d="M23.54 10.573l-7.54-7.547-7.54 7.547c-4.167 4.167-4.167 10.92 0 15.087 2.080 2.080 4.813 3.127 7.54 3.127s5.46-1.040 7.54-3.127c4.167-4.167 4.167-10.92 0-15.087zM16 26.113c-2.14 0-4.147-0.833-5.653-2.347-1.513-1.507-2.347-3.513-2.347-5.653s0.833-4.147 2.347-5.66l5.653-5.653v19.313z"></path>
</svg>
