<?xml version="1.0" encoding="utf-8"?>
<!-- Generated by IcoMoon.io -->
<!DOCTYPE svg PUBLIC "-//W3C//DTD SVG 1.1//EN" "http://www.w3.org/Graphics/SVG/1.1/DTD/svg11.dtd">
<svg version="1.1" xmlns="http://www.w3.org/2000/svg" xmlns:xlink="http://www.w3.org/1999/xlink" width="32" height="32" viewBox="0 0 32 32">
<path fill="#444444" d="M1.333 24v4h4c0-2.207-1.793-4-4-4zM1.333 18.667v2.667c3.68 0 6.667 2.987 6.667 6.667h2.667c0-5.153-4.18-9.333-9.333-9.333zM25.333 9.333h-18.667v2.18c5.28 1.707 9.447 5.873 11.153 11.153h7.513v-13.333zM1.333 13.333v2.667c6.627 0 12 5.373 12 12h2.667c0-8.1-6.567-14.667-14.667-14.667zM28 4h-24c-1.473 0-2.667 1.193-2.667 2.667v4h2.667v-4h24v18.667h-9.333v2.667h9.333c1.473 0 2.667-1.193 2.667-2.667v-18.667c0-1.473-1.193-2.667-2.667-2.667z"></path>
</svg>
