<?xml version="1.0" encoding="utf-8"?>
<!-- Generated by IcoMoon.io -->
<!DOCTYPE svg PUBLIC "-//W3C//DTD SVG 1.1//EN" "http://www.w3.org/Graphics/SVG/1.1/DTD/svg11.dtd">
<svg version="1.1" xmlns="http://www.w3.org/2000/svg" xmlns:xlink="http://www.w3.org/1999/xlink" width="32" height="32" viewBox="0 0 32 32">
<path fill="#444444" d="M6.667 21.333c0 5.153 4.18 9.333 9.333 9.333s9.333-4.18 9.333-9.333v-5.333h-18.667v5.333zM21.5 5.827l2.8-2.8-1.1-1.1-3.073 3.073c-1.253-0.62-2.64-1-4.127-1s-2.873 0.38-4.127 1l-3.073-3.073-1.1 1.1 2.8 2.8c-2.313 1.693-3.833 4.413-3.833 7.507v1.333h18.667v-1.333c0-3.093-1.52-5.813-3.833-7.507zM12 12c-0.74 0-1.333-0.6-1.333-1.333s0.593-1.333 1.333-1.333c0.74 0 1.333 0.6 1.333 1.333s-0.593 1.333-1.333 1.333zM20 12c-0.74 0-1.333-0.6-1.333-1.333s0.593-1.333 1.333-1.333c0.74 0 1.333 0.6 1.333 1.333s-0.593 1.333-1.333 1.333z"></path>
</svg>
