<?xml version="1.0" encoding="utf-8"?>
<!-- Generated by IcoMoon.io -->
<!DOCTYPE svg PUBLIC "-//W3C//DTD SVG 1.1//EN" "http://www.w3.org/Graphics/SVG/1.1/DTD/svg11.dtd">
<svg version="1.1" xmlns="http://www.w3.org/2000/svg" xmlns:xlink="http://www.w3.org/1999/xlink" width="32" height="32" viewBox="0 0 32 32">
<path fill="#444444" d="M16 14.667c-1.473 0-2.667 1.193-2.667 2.667s1.193 2.667 2.667 2.667 2.667-1.193 2.667-2.667-1.193-2.667-2.667-2.667zM24 17.333c0-4.42-3.58-8-8-8s-8 3.58-8 8c0 2.96 1.607 5.533 3.993 6.92l1.347-2.32c-1.593-0.927-2.673-2.627-2.673-4.6 0-2.947 2.387-5.333 5.333-5.333s5.333 2.387 5.333 5.333c0 1.973-1.080 3.673-2.673 4.593l1.347 2.32c2.387-1.38 3.993-3.953 3.993-6.913zM16 4c-7.367 0-13.333 5.967-13.333 13.333 0 4.927 2.68 9.22 6.66 11.527l1.333-2.307c-3.18-1.84-5.327-5.28-5.327-9.22 0-5.893 4.773-10.667 10.667-10.667s10.667 4.773 10.667 10.667c0 3.94-2.147 7.38-5.327 9.227l1.333 2.307c3.98-2.313 6.66-6.607 6.66-11.533 0-7.367-5.973-13.333-13.333-13.333z"></path>
</svg>
