<?xml version="1.0" encoding="utf-8"?>
<!-- Generated by IcoMoon.io -->
<!DOCTYPE svg PUBLIC "-//W3C//DTD SVG 1.1//EN" "http://www.w3.org/Graphics/SVG/1.1/DTD/svg11.dtd">
<svg version="1.1" xmlns="http://www.w3.org/2000/svg" xmlns:xlink="http://www.w3.org/1999/xlink" width="32" height="32" viewBox="0 0 32 32">
<path fill="#444444" d="M25.427 6.573l-1.887 1.887c1.933 1.927 3.127 4.593 3.127 7.54 0 5.893-4.773 10.667-10.667 10.667s-10.667-4.773-10.667-10.667c0-5.44 4.073-9.92 9.333-10.573v2.693c-3.78 0.633-6.667 3.92-6.667 7.88 0 4.42 3.58 8 8 8s8-3.58 8-8c0-2.207-0.893-4.207-2.34-5.66l-1.887 1.887c0.96 0.967 1.56 2.3 1.56 3.773 0 2.947-2.387 5.333-5.333 5.333s-5.333-2.387-5.333-5.333c0-2.48 1.707-4.553 4-5.147v2.847c-0.793 0.46-1.333 1.313-1.333 2.3 0 1.473 1.193 2.667 2.667 2.667s2.667-1.193 2.667-2.667c0-0.987-0.54-1.833-1.333-2.3v-11.033h-1.333c-7.367 0-13.333 5.967-13.333 13.333 0 7.36 5.967 13.333 13.333 13.333 7.36 0 13.333-5.973 13.333-13.333 0-3.68-1.493-7.013-3.907-9.427z"></path>
</svg>
