<?xml version="1.0" encoding="utf-8"?>
<!-- Generated by IcoMoon.io -->
<!DOCTYPE svg PUBLIC "-//W3C//DTD SVG 1.1//EN" "http://www.w3.org/Graphics/SVG/1.1/DTD/svg11.dtd">
<svg version="1.1" xmlns="http://www.w3.org/2000/svg" xmlns:xlink="http://www.w3.org/1999/xlink" width="32" height="32" viewBox="0 0 32 32">
<path fill="#444444" d="M16 1.333c-6.627 0-12 5.373-12 12v9.333c0 2.207 1.793 4 4 4h4v-10.667h-5.333v-2.667c0-5.153 4.18-9.333 9.333-9.333s9.333 4.18 9.333 9.333v2.667h-5.333v10.667h4c2.207 0 4-1.793 4-4v-9.333c0-6.627-5.373-12-12-12z"></path>
</svg>
