<?xml version="1.0" encoding="utf-8"?>
<!-- Generated by IcoMoon.io -->
<!DOCTYPE svg PUBLIC "-//W3C//DTD SVG 1.1//EN" "http://www.w3.org/Graphics/SVG/1.1/DTD/svg11.dtd">
<svg version="1.1" xmlns="http://www.w3.org/2000/svg" xmlns:xlink="http://www.w3.org/1999/xlink" width="32" height="32" viewBox="0 0 32 32">
<path fill="#444444" d="M5.333 8h24v-2.667h-24c-1.473 0-2.667 1.193-2.667 2.667v14.667h-2.667v4h18.667v-4h-13.333v-14.667zM30.667 10.667h-8c-0.733 0-1.333 0.6-1.333 1.333v13.333c0 0.733 0.6 1.333 1.333 1.333h8c0.733 0 1.333-0.6 1.333-1.333v-13.333c0-0.733-0.6-1.333-1.333-1.333zM29.333 22.667h-5.333v-9.333h5.333v9.333z"></path>
</svg>
