<?xml version="1.0" encoding="utf-8"?>
<!-- Generated by IcoMoon.io -->
<!DOCTYPE svg PUBLIC "-//W3C//DTD SVG 1.1//EN" "http://www.w3.org/Graphics/SVG/1.1/DTD/svg11.dtd">
<svg version="1.1" xmlns="http://www.w3.org/2000/svg" xmlns:xlink="http://www.w3.org/1999/xlink" width="32" height="32" viewBox="0 0 32 32">
<path fill="#444444" d="M25.333 4h-18.667c-1.473 0-2.667 1.193-2.667 2.667v18.667c0 1.473 1.193 2.667 2.667 2.667h18.667c1.473 0 2.667-1.193 2.667-2.667v-18.667c0-1.473-1.193-2.667-2.667-2.667zM6.667 6.653h4c0 2.207-1.793 4.013-4 4.013v-4.013zM6.667 16v-2.667c3.68 0 6.667-3 6.667-6.68h2.667c0 5.153-4.18 9.347-9.333 9.347zM6.667 24l4.667-6 3.333 4.007 4.667-6.007 6 8h-18.667z"></path>
</svg>
