<?xml version="1.0" encoding="utf-8"?>
<!-- Generated by IcoMoon.io -->
<!DOCTYPE svg PUBLIC "-//W3C//DTD SVG 1.1//EN" "http://www.w3.org/Graphics/SVG/1.1/DTD/svg11.dtd">
<svg version="1.1" xmlns="http://www.w3.org/2000/svg" xmlns:xlink="http://www.w3.org/1999/xlink" width="32" height="32" viewBox="0 0 32 32">
<path fill="#444444" d="M28.547 15.44l-11.993-11.993c-0.487-0.48-1.153-0.78-1.887-0.78h-9.333c-1.473 0-2.667 1.193-2.667 2.667v9.333c0 0.74 0.3 1.407 0.787 1.887l12 12c0.48 0.48 1.147 0.78 1.88 0.78s1.407-0.3 1.887-0.78l9.333-9.333c0.48-0.487 0.78-1.153 0.78-1.887 0-0.74-0.3-1.407-0.787-1.893zM7.333 9.333c-1.107 0-2-0.893-2-2s0.893-2 2-2 2 0.893 2 2-0.893 2-2 2z"></path>
</svg>
