<?xml version="1.0" encoding="utf-8"?>
<!-- Generated by IcoMoon.io -->
<!DOCTYPE svg PUBLIC "-//W3C//DTD SVG 1.1//EN" "http://www.w3.org/Graphics/SVG/1.1/DTD/svg11.dtd">
<svg version="1.1" xmlns="http://www.w3.org/2000/svg" xmlns:xlink="http://www.w3.org/1999/xlink" width="32" height="32" viewBox="0 0 32 32">
<path fill="#444444" d="M19.287 18l-4.62 8.667v-7.333h-2.667l0.713-1.333h-3.38v9.553c0 0.98 0.793 1.78 1.78 1.78h9.78c0.98 0 1.78-0.793 1.78-1.78v-9.553h-3.387zM20.887 5.333h-2.22v-2.667h-5.333v2.667h-2.22c-0.987 0-1.78 0.793-1.78 1.78v10.887h3.38l4.62-8.667v7.333h2.667l-0.713 1.333h3.38v-10.887c0-0.987-0.793-1.78-1.78-1.78z"></path>
</svg>
