<?xml version="1.0" encoding="utf-8"?>
<!-- Generated by IcoMoon.io -->
<!DOCTYPE svg PUBLIC "-//W3C//DTD SVG 1.1//EN" "http://www.w3.org/Graphics/SVG/1.1/DTD/svg11.dtd">
<svg version="1.1" xmlns="http://www.w3.org/2000/svg" xmlns:xlink="http://www.w3.org/1999/xlink" width="32" height="32" viewBox="0 0 32 32">
<path fill="#444444" d="M16 5.333c-2.947 0-5.333 2.387-5.333 5.333 0 2.94 2.387 5.333 5.333 5.333s5.333-2.393 5.333-5.333c0-2.947-2.387-5.333-5.333-5.333zM16 18.667c-3.553 0-10.667 1.78-10.667 5.333v2.667h21.333v-2.667c0-3.553-7.113-5.333-10.667-5.333z"></path>
</svg>
