<?xml version="1.0" encoding="utf-8"?>
<!-- Generated by IcoMoon.io -->
<!DOCTYPE svg PUBLIC "-//W3C//DTD SVG 1.1//EN" "http://www.w3.org/Graphics/SVG/1.1/DTD/svg11.dtd">
<svg version="1.1" xmlns="http://www.w3.org/2000/svg" xmlns:xlink="http://www.w3.org/1999/xlink" width="32" height="32" viewBox="0 0 32 32">
<path fill="#444444" d="M26.667 4h-21.333v13.333c0 2.947 2.387 5.333 5.333 5.333h8c2.947 0 5.333-2.387 5.333-5.333v-4h2.667c1.473 0 2.667-1.193 2.667-2.667v-4c0-1.473-1.193-2.667-2.667-2.667zM26.667 10.667h-2.667v-4h2.667v4zM2.667 28h24v-2.667h-24v2.667z"></path>
</svg>
