<?xml version="1.0" encoding="utf-8"?>
<!-- Generated by IcoMoon.io -->
<!DOCTYPE svg PUBLIC "-//W3C//DTD SVG 1.1//EN" "http://www.w3.org/Graphics/SVG/1.1/DTD/svg11.dtd">
<svg version="1.1" xmlns="http://www.w3.org/2000/svg" xmlns:xlink="http://www.w3.org/1999/xlink" width="32" height="32" viewBox="0 0 32 32">
<path fill="#444444" d="M12.227 22.44c2.080 2.080 5.46 2.080 7.54 0s2.080-5.46 0-7.54l-7.54 7.54zM24 2.68l-16-0.013c-1.473 0-2.667 1.193-2.667 2.667v21.333c0 1.473 1.193 2.667 2.667 2.667h16c1.473 0 2.667-1.193 2.667-2.667v-21.333c0-1.473-1.193-2.653-2.667-2.653zM13.333 5.333c0.733 0 1.333 0.6 1.333 1.333s-0.6 1.333-1.333 1.333-1.333-0.6-1.333-1.333 0.6-1.333 1.333-1.333zM9.333 5.333c0.733 0 1.333 0.6 1.333 1.333s-0.6 1.333-1.333 1.333-1.333-0.6-1.333-1.333 0.6-1.333 1.333-1.333zM16 26.667c-4.42 0-8-3.58-8-8s3.58-8 8-8 8 3.58 8 8-3.58 8-8 8z"></path>
</svg>
