<?xml version="1.0" encoding="utf-8"?>
<!-- Generated by IcoMoon.io -->
<!DOCTYPE svg PUBLIC "-//W3C//DTD SVG 1.1//EN" "http://www.w3.org/Graphics/SVG/1.1/DTD/svg11.dtd">
<svg version="1.1" xmlns="http://www.w3.org/2000/svg" xmlns:xlink="http://www.w3.org/1999/xlink" width="32" height="32" viewBox="0 0 32 32">
<path fill="#444444" d="M25.227 6.68c-0.273-0.787-1.020-1.347-1.893-1.347h-14.667c-0.873 0-1.62 0.56-1.893 1.347l-2.773 7.987v10.667c0 0.733 0.6 1.333 1.333 1.333h1.333c0.74 0 1.333-0.6 1.333-1.333v-1.333h16v1.333c0 0.733 0.6 1.333 1.333 1.333h1.333c0.74 0 1.333-0.6 1.333-1.333v-10.667l-2.773-7.987zM8.667 20c-1.107 0-2-0.893-2-2s0.893-2 2-2 2 0.893 2 2-0.893 2-2 2zM23.333 20c-1.107 0-2-0.893-2-2s0.893-2 2-2 2 0.893 2 2-0.893 2-2 2zM6.667 13.333l2-6h14.667l2 6h-18.667z"></path>
</svg>
