<?xml version="1.0" encoding="utf-8"?>
<!-- Generated by IcoMoon.io -->
<!DOCTYPE svg PUBLIC "-//W3C//DTD SVG 1.1//EN" "http://www.w3.org/Graphics/SVG/1.1/DTD/svg11.dtd">
<svg version="1.1" xmlns="http://www.w3.org/2000/svg" xmlns:xlink="http://www.w3.org/1999/xlink" width="32" height="32" viewBox="0 0 32 32">
<path fill="#444444" d="M29.333 10.667v-8l-26.667 26.667h21.333v-18.667zM26.667 29.333h2.667v-2.667h-2.667v2.667zM26.667 13.333v10.667h2.667v-10.667h-2.667z"></path>
</svg>
