<?xml version="1.0" encoding="utf-8"?>
<!-- Generated by IcoMoon.io -->
<!DOCTYPE svg PUBLIC "-//W3C//DTD SVG 1.1//EN" "http://www.w3.org/Graphics/SVG/1.1/DTD/svg11.dtd">
<svg version="1.1" xmlns="http://www.w3.org/2000/svg" xmlns:xlink="http://www.w3.org/1999/xlink" width="32" height="32" viewBox="0 0 32 32">
<path fill="#444444" d="M16 22.667c4.42 0 8-3.58 8-8v-10.667h-3.333v10.667c0 2.58-2.087 4.667-4.667 4.667s-4.667-2.087-4.667-4.667v-10.667h-3.333v10.667c0 4.42 3.58 8 8 8zM6.667 25.333v2.667h18.667v-2.667h-18.667z"></path>
</svg>
