<?xml version="1.0" encoding="utf-8"?>
<!-- Generated by IcoMoon.io -->
<!DOCTYPE svg PUBLIC "-//W3C//DTD SVG 1.1//EN" "http://www.w3.org/Graphics/SVG/1.1/DTD/svg11.dtd">
<svg version="1.1" xmlns="http://www.w3.org/2000/svg" xmlns:xlink="http://www.w3.org/1999/xlink" width="32" height="32" viewBox="0 0 32 32">
<path fill="#444444" d="M26.413 19.987l1.587-1.233-1.9-1.9-1.587 1.233 1.9 1.9zM25.82 13.7l2.18-1.7-12-9.333-3.887 3.020 10.5 10.5 3.207-2.487zM4.367 1.333l-1.7 1.7 5.627 5.627-4.293 3.34 2.173 1.687 9.827 7.647 2.793-2.173 1.9 1.9-4.707 3.66-9.827-7.647-2.16 1.68 12 9.333 6.593-5.133 5.047 5.047 1.693-1.7-24.967-24.967z"></path>
</svg>
