<?xml version="1.0" encoding="utf-8"?>
<!-- Generated by IcoMoon.io -->
<!DOCTYPE svg PUBLIC "-//W3C//DTD SVG 1.1//EN" "http://www.w3.org/Graphics/SVG/1.1/DTD/svg11.dtd">
<svg version="1.1" xmlns="http://www.w3.org/2000/svg" xmlns:xlink="http://www.w3.org/1999/xlink" width="32" height="32" viewBox="0 0 32 32">
<path fill="#444444" d="M24 10.667h-1.333v-2.667c0-3.68-2.987-6.667-6.667-6.667s-6.667 2.987-6.667 6.667v2.667h-1.333c-1.473 0-2.667 1.193-2.667 2.667v13.333c0 1.473 1.193 2.667 2.667 2.667h16c1.473 0 2.667-1.193 2.667-2.667v-13.333c0-1.473-1.193-2.667-2.667-2.667zM16 3.867c2.28 0 4.133 1.853 4.133 4.133v2.667h-8.133v-2.667h-0.133c0-2.28 1.853-4.133 4.133-4.133zM24 26.667h-16v-13.333h16v13.333zM16 22.667c1.473 0 2.667-1.193 2.667-2.667s-1.193-2.667-2.667-2.667-2.667 1.193-2.667 2.667 1.193 2.667 2.667 2.667z"></path>
</svg>
