<?xml version="1.0" encoding="utf-8"?>
<!-- Generated by IcoMoon.io -->
<!DOCTYPE svg PUBLIC "-//W3C//DTD SVG 1.1//EN" "http://www.w3.org/Graphics/SVG/1.1/DTD/svg11.dtd">
<svg version="1.1" xmlns="http://www.w3.org/2000/svg" xmlns:xlink="http://www.w3.org/1999/xlink" width="32" height="32" viewBox="0 0 32 32">
<path fill="#444444" d="M27.527 27.833l-21.833-21.833-1.693 1.7 3.707 3.707c-3.4 4.187-3.147 10.353 0.747 14.253 2.080 2.080 4.813 3.127 7.54 3.127 2.38 0 4.76-0.793 6.707-2.373l3.6 3.587 1.7-1.7-0.473-0.467zM16 26.113c-2.14 0-4.147-0.833-5.653-2.34-1.513-1.513-2.347-3.52-2.347-5.66 0-1.76 0.573-3.427 1.613-4.807l6.387 6.393v6.413zM16 6.8v6.107l9.673 9.673c1.82-3.94 1.12-8.76-2.133-12.013l-7.54-7.54-4.94 4.94 1.887 1.887 3.053-3.053z"></path>
</svg>
