<?xml version="1.0" encoding="utf-8"?>
<!-- Generated by IcoMoon.io -->
<!DOCTYPE svg PUBLIC "-//W3C//DTD SVG 1.1//EN" "http://www.w3.org/Graphics/SVG/1.1/DTD/svg11.dtd">
<svg version="1.1" xmlns="http://www.w3.org/2000/svg" xmlns:xlink="http://www.w3.org/1999/xlink" width="32" height="32" viewBox="0 0 32 32">
<path fill="#444444" d="M25.333 5.333h-5.333l-10.527 16.84-3.473-6.173 6-10.667h-5.333l-6 10.667 6 10.667h5.333l10.527-16.84 3.473 6.173-6 10.667h5.333l6-10.667z"></path>
</svg>
