<?xml version="1.0" encoding="utf-8"?>
<!-- Generated by IcoMoon.io -->
<!DOCTYPE svg PUBLIC "-//W3C//DTD SVG 1.1//EN" "http://www.w3.org/Graphics/SVG/1.1/DTD/svg11.dtd">
<svg version="1.1" xmlns="http://www.w3.org/2000/svg" xmlns:xlink="http://www.w3.org/1999/xlink" width="32" height="32" viewBox="0 0 32 32">
<path fill="#444444" d="M14.113 12.227l-6.893-6.893-1.887 1.887 6.893 6.893 1.887-1.887zM19.333 5.333l2.727 2.727-16.727 16.72 1.887 1.887 16.727-16.727 2.72 2.727v-7.333h-7.333zM19.773 17.887l-1.887 1.887 4.173 4.173-2.727 2.72h7.333v-7.333l-2.727 2.727-4.167-4.173z"></path>
</svg>
