<?xml version="1.0" encoding="utf-8"?>
<!-- Generated by IcoMoon.io -->
<!DOCTYPE svg PUBLIC "-//W3C//DTD SVG 1.1//EN" "http://www.w3.org/Graphics/SVG/1.1/DTD/svg11.dtd">
<svg version="1.1" xmlns="http://www.w3.org/2000/svg" xmlns:xlink="http://www.w3.org/1999/xlink" width="32" height="32" viewBox="0 0 32 32">
<path fill="#444444" d="M16 8.667c1.84 0 3.333 1.493 3.333 3.333 0 0.98-0.433 1.853-1.107 2.467l4.84 4.84c1.3-2.48 2.267-5.060 2.267-7.307 0-5.153-4.18-9.333-9.333-9.333-2.64 0-5.020 1.1-6.713 2.86l4.247 4.247c0.607-0.673 1.487-1.107 2.467-1.107zM21.833 21.467l-17.473-17.467-1.693 1.7 4.24 4.24c-0.153 0.66-0.24 1.347-0.24 2.060 0 7 9.333 17.333 9.333 17.333s2.227-2.467 4.5-5.8l4.467 4.467 1.7-1.7-4.833-4.833z"></path>
</svg>
