<?xml version="1.0" encoding="utf-8"?>
<!-- Generated by IcoMoon.io -->
<!DOCTYPE svg PUBLIC "-//W3C//DTD SVG 1.1//EN" "http://www.w3.org/Graphics/SVG/1.1/DTD/svg11.dtd">
<svg version="1.1" xmlns="http://www.w3.org/2000/svg" xmlns:xlink="http://www.w3.org/1999/xlink" width="32" height="32" viewBox="0 0 32 32">
<path fill="#444444" d="M24 14.667l6.667-6.667-6.667-6.667v4h-5.333v5.333h5.333v4zM26.667 20.667c-1.66 0-3.26-0.267-4.76-0.76-0.46-0.147-0.987-0.040-1.353 0.327l-2.933 2.94c-3.78-1.92-6.86-5.007-8.787-8.78l2.933-2.94c0.367-0.367 0.473-0.893 0.327-1.353-0.493-1.507-0.76-3.107-0.76-4.767 0-0.74-0.593-1.333-1.333-1.333h-4.667c-0.74 0-1.333 0.593-1.333 1.333 0 12.52 10.147 22.667 22.667 22.667 0.74 0 1.333-0.593 1.333-1.333v-4.667c0-0.74-0.593-1.333-1.333-1.333z"></path>
</svg>
