<?xml version="1.0" encoding="utf-8"?>
<!-- Generated by IcoMoon.io -->
<!DOCTYPE svg PUBLIC "-//W3C//DTD SVG 1.1//EN" "http://www.w3.org/Graphics/SVG/1.1/DTD/svg11.dtd">
<svg version="1.1" xmlns="http://www.w3.org/2000/svg" xmlns:xlink="http://www.w3.org/1999/xlink" width="32" height="32" viewBox="0 0 32 32">
<path fill="#444444" d="M22.667 1.347l-13.333-0.013c-1.473 0-2.667 1.193-2.667 2.667v24c0 1.473 1.193 2.667 2.667 2.667h13.333c1.473 0 2.667-1.193 2.667-2.667v-24c0-1.473-1.193-2.653-2.667-2.653zM22.667 25.333h-13.333v-18.667h13.333v18.667z"></path>
</svg>
