<?xml version="1.0" encoding="utf-8"?>
<!-- Generated by IcoMoon.io -->
<!DOCTYPE svg PUBLIC "-//W3C//DTD SVG 1.1//EN" "http://www.w3.org/Graphics/SVG/1.1/DTD/svg11.dtd">
<svg version="1.1" xmlns="http://www.w3.org/2000/svg" xmlns:xlink="http://www.w3.org/1999/xlink" width="32" height="32" viewBox="0 0 32 32">
<path fill="#444444" d="M16.867 13.333c-1.1-3.107-4.053-5.333-7.533-5.333-4.42 0-8 3.58-8 8s3.58 8 8 8c3.48 0 6.433-2.227 7.533-5.333h5.8v5.333h5.333v-5.333h2.667v-5.333h-13.8zM9.333 18.667c-1.473 0-2.667-1.193-2.667-2.667s1.193-2.667 2.667-2.667 2.667 1.193 2.667 2.667-1.193 2.667-2.667 2.667z"></path>
</svg>
