<?xml version="1.0" encoding="utf-8"?>
<!-- Generated by IcoMoon.io -->
<!DOCTYPE svg PUBLIC "-//W3C//DTD SVG 1.1//EN" "http://www.w3.org/Graphics/SVG/1.1/DTD/svg11.dtd">
<svg version="1.1" xmlns="http://www.w3.org/2000/svg" xmlns:xlink="http://www.w3.org/1999/xlink" width="32" height="32" viewBox="0 0 32 32">
<path fill="#444444" d="M16.007 7.333l-2.673 3.333h5.333l-2.66-3.333zM24 13.333v5.333l3.333-2.66-3.333-2.673zM8 13.333l-3.333 2.673 3.333 2.66v-5.333zM18.667 21.333h-5.333l2.673 3.333 2.66-3.333zM28 4h-24c-1.473 0-2.667 1.193-2.667 2.667v18.667c0 1.473 1.193 2.667 2.667 2.667h24c1.473 0 2.667-1.193 2.667-2.667v-18.667c0-1.473-1.193-2.667-2.667-2.667zM28 25.353h-24v-18.707h24v18.707z"></path>
</svg>
