<?xml version="1.0" encoding="utf-8"?>
<!-- Generated by IcoMoon.io -->
<!DOCTYPE svg PUBLIC "-//W3C//DTD SVG 1.1//EN" "http://www.w3.org/Graphics/SVG/1.1/DTD/svg11.dtd">
<svg version="1.1" xmlns="http://www.w3.org/2000/svg" xmlns:xlink="http://www.w3.org/1999/xlink" width="32" height="32" viewBox="0 0 32 32">
<path fill="#444444" d="M28 21.333v-2.667l-10.667-6.667v-7.333c0-1.107-0.893-2-2-2s-2 0.893-2 2v7.333l-10.667 6.667v2.667l10.667-3.333v7.333l-2.667 2v2l4.667-1.333 4.667 1.333v-2l-2.667-2v-7.333l10.667 3.333z"></path>
</svg>
