<?xml version="1.0" encoding="utf-8"?>
<!-- Generated by IcoMoon.io -->
<!DOCTYPE svg PUBLIC "-//W3C//DTD SVG 1.1//EN" "http://www.w3.org/Graphics/SVG/1.1/DTD/svg11.dtd">
<svg version="1.1" xmlns="http://www.w3.org/2000/svg" xmlns:xlink="http://www.w3.org/1999/xlink" width="32" height="32" viewBox="0 0 32 32">
<path fill="#444444" d="M23.513 7.793c-0.487-0.68-1.28-1.127-2.18-1.127l-14.667 0.013c-1.473 0-2.667 1.18-2.667 2.653v13.333c0 1.473 1.193 2.653 2.667 2.653l14.667 0.013c0.9 0 1.693-0.447 2.18-1.127l5.82-8.207-5.82-8.207z"></path>
</svg>
