<?xml version="1.0" encoding="utf-8"?>
<!-- Generated by IcoMoon.io -->
<!DOCTYPE svg PUBLIC "-//W3C//DTD SVG 1.1//EN" "http://www.w3.org/Graphics/SVG/1.1/DTD/svg11.dtd">
<svg version="1.1" xmlns="http://www.w3.org/2000/svg" xmlns:xlink="http://www.w3.org/1999/xlink" width="32" height="32" viewBox="0 0 32 32">
<path fill="#444444" d="M16 4v12.367c-0.627-0.22-1.293-0.367-2-0.367-3.313 0-6 2.687-6 6s2.687 6 6 6c3.087 0 5.6-2.34 5.933-5.333h0.067v-14.667h5.333v-4h-9.333z"></path>
</svg>
