<?xml version="1.0" encoding="utf-8"?>
<!-- Generated by IcoMoon.io -->
<!DOCTYPE svg PUBLIC "-//W3C//DTD SVG 1.1//EN" "http://www.w3.org/Graphics/SVG/1.1/DTD/svg11.dtd">
<svg version="1.1" xmlns="http://www.w3.org/2000/svg" xmlns:xlink="http://www.w3.org/1999/xlink" width="32" height="32" viewBox="0 0 32 32">
<path fill="#444444" d="M12.533 14l6.353-11.007c-0.927-0.207-1.893-0.327-2.887-0.327-3.2 0-6.127 1.127-8.427 3.007l4.887 8.46 0.073-0.133zM28.72 12c-1.227-3.9-4.2-7.013-7.993-8.453l-4.88 8.453h12.873zM29.067 13.333h-9.987l0.387 0.667 6.353 11c2.173-2.373 3.513-5.527 3.513-9 0-0.913-0.093-1.807-0.267-2.667zM11.38 16l-5.2-9c-2.173 2.373-3.513 5.527-3.513 9 0 0.913 0.093 1.807 0.267 2.667h9.987l-1.54-2.667zM3.28 20c1.227 3.9 4.2 7.013 7.993 8.453l4.88-8.453h-12.873zM18.307 20l-5.2 9.007c0.933 0.207 1.9 0.327 2.893 0.327 3.2 0 6.127-1.127 8.427-3.007l-4.887-8.46-1.233 2.133z"></path>
</svg>
