<?xml version="1.0" encoding="utf-8"?>
<!-- Generated by IcoMoon.io -->
<!DOCTYPE svg PUBLIC "-//W3C//DTD SVG 1.1//EN" "http://www.w3.org/Graphics/SVG/1.1/DTD/svg11.dtd">
<svg version="1.1" xmlns="http://www.w3.org/2000/svg" xmlns:xlink="http://www.w3.org/1999/xlink" width="32" height="32" viewBox="0 0 32 32">
<path fill="#444444" d="M16 28.467l-1.933-1.753c-6.867-6.233-11.4-10.347-11.4-15.38 0-4.113 3.22-7.333 7.333-7.333 2.32 0 4.547 1.080 6 2.78 1.453-1.7 3.68-2.78 6-2.78 4.113 0 7.333 3.22 7.333 7.333 0 5.033-4.533 9.147-11.4 15.38l-1.933 1.753z"></path>
</svg>
