<?xml version="1.0" encoding="utf-8"?>
<!-- Generated by IcoMoon.io -->
<!DOCTYPE svg PUBLIC "-//W3C//DTD SVG 1.1//EN" "http://www.w3.org/Graphics/SVG/1.1/DTD/svg11.dtd">
<svg version="1.1" xmlns="http://www.w3.org/2000/svg" xmlns:xlink="http://www.w3.org/1999/xlink" width="32" height="32" viewBox="0 0 32 32">
<path fill="#444444" d="M4 17.333h10.667v-13.333h-10.667v13.333zM4 28h10.667v-8h-10.667v8zM17.333 28h10.667v-13.333h-10.667v13.333zM17.333 4v8h10.667v-8h-10.667z"></path>
</svg>
