<?xml version="1.0" encoding="utf-8"?>
<!-- Generated by IcoMoon.io -->
<!DOCTYPE svg PUBLIC "-//W3C//DTD SVG 1.1//EN" "http://www.w3.org/Graphics/SVG/1.1/DTD/svg11.dtd">
<svg version="1.1" xmlns="http://www.w3.org/2000/svg" xmlns:xlink="http://www.w3.org/1999/xlink" width="32" height="32" viewBox="0 0 32 32">
<path fill="#444444" d="M28 4h-24c-1.473 0-2.667 1.193-2.667 2.667v18.667c0 1.473 1.193 2.667 2.667 2.667h24c1.473 0 2.667-1.193 2.667-2.667v-18.667c0-1.473-1.193-2.667-2.667-2.667zM28 25.353h-24v-18.707h24v18.707zM10.667 21.333h3.333l2 2 2-2h3.333v-3.333l2-2-2-2v-3.333h-3.333l-2-2-2 2h-3.333v3.333l-2 2 2 2v3.333zM16 12c2.207 0 4 1.793 4 4s-1.793 4-4 4v-8z"></path>
</svg>
