<?xml version="1.0" encoding="utf-8"?>
<!-- Generated by IcoMoon.io -->
<!DOCTYPE svg PUBLIC "-//W3C//DTD SVG 1.1//EN" "http://www.w3.org/Graphics/SVG/1.1/DTD/svg11.dtd">
<svg version="1.1" xmlns="http://www.w3.org/2000/svg" xmlns:xlink="http://www.w3.org/1999/xlink" width="32" height="32" viewBox="0 0 32 32">
<path fill="#444444" d="M18.667 9.333c0.733 0 1.333-0.6 1.333-1.333s-0.6-1.333-1.333-1.333-1.333 0.6-1.333 1.333 0.6 1.333 1.333 1.333zM18.4 15.307c0.087 0.013 0.173 0.027 0.267 0.027 1.107 0 2-0.893 2-2s-0.893-2-2-2-2 0.893-2 2c0 0.093 0.013 0.18 0.027 0.273 0.12 0.88 0.82 1.58 1.707 1.7zM18.667 4.667c0.367 0 0.667-0.3 0.667-0.667s-0.3-0.667-0.667-0.667-0.667 0.3-0.667 0.667 0.3 0.667 0.667 0.667zM13.333 4.667c0.367 0 0.667-0.3 0.667-0.667s-0.3-0.667-0.667-0.667-0.667 0.3-0.667 0.667 0.3 0.667 0.667 0.667zM28 14c0.367 0 0.667-0.3 0.667-0.667s-0.3-0.667-0.667-0.667-0.667 0.3-0.667 0.667 0.3 0.667 0.667 0.667zM13.333 9.333c0.733 0 1.333-0.6 1.333-1.333s-0.6-1.333-1.333-1.333-1.333 0.6-1.333 1.333 0.6 1.333 1.333 1.333zM24 20c0.733 0 1.333-0.6 1.333-1.333s-0.6-1.333-1.333-1.333-1.333 0.6-1.333 1.333 0.6 1.333 1.333 1.333zM24 14.667c0.733 0 1.333-0.6 1.333-1.333s-0.6-1.333-1.333-1.333-1.333 0.6-1.333 1.333 0.6 1.333 1.333 1.333zM24 9.333c0.733 0 1.333-0.6 1.333-1.333s-0.6-1.333-1.333-1.333-1.333 0.6-1.333 1.333 0.6 1.333 1.333 1.333zM18.667 27.333c-0.367 0-0.667 0.3-0.667 0.667s0.3 0.667 0.667 0.667 0.667-0.3 0.667-0.667-0.3-0.667-0.667-0.667zM3.333 7.033l5.047 5.047c-0.127-0.040-0.247-0.080-0.38-0.080-0.733 0-1.333 0.6-1.333 1.333s0.6 1.333 1.333 1.333 1.333-0.6 1.333-1.333c0-0.133-0.040-0.253-0.073-0.38l3.747 3.747c-0.953 0.16-1.673 0.973-1.673 1.967 0 1.107 0.893 2 2 2 0.993 0 1.807-0.72 1.967-1.667l3.747 3.747c-0.12-0.040-0.247-0.080-0.38-0.080-0.733 0-1.333 0.6-1.333 1.333s0.6 1.333 1.333 1.333 1.333-0.6 1.333-1.333c0-0.133-0.040-0.253-0.073-0.38l5.040 5.047 1.7-1.7-21.633-21.633-1.7 1.7zM13.333 22.667c-0.733 0-1.333 0.6-1.333 1.333s0.6 1.333 1.333 1.333 1.333-0.6 1.333-1.333-0.6-1.333-1.333-1.333zM28 18c-0.367 0-0.667 0.3-0.667 0.667s0.3 0.667 0.667 0.667 0.667-0.3 0.667-0.667-0.3-0.667-0.667-0.667zM8 17.333c-0.733 0-1.333 0.6-1.333 1.333s0.6 1.333 1.333 1.333 1.333-0.6 1.333-1.333-0.6-1.333-1.333-1.333zM4 12.667c-0.367 0-0.667 0.3-0.667 0.667s0.3 0.667 0.667 0.667 0.667-0.3 0.667-0.667-0.3-0.667-0.667-0.667zM13.333 27.333c-0.367 0-0.667 0.3-0.667 0.667s0.3 0.667 0.667 0.667 0.667-0.3 0.667-0.667-0.3-0.667-0.667-0.667zM8 22.667c-0.733 0-1.333 0.6-1.333 1.333s0.6 1.333 1.333 1.333 1.333-0.6 1.333-1.333-0.6-1.333-1.333-1.333zM4 18c-0.367 0-0.667 0.3-0.667 0.667s0.3 0.667 0.667 0.667 0.667-0.3 0.667-0.667-0.3-0.667-0.667-0.667z"></path>
</svg>
