<?xml version="1.0" encoding="utf-8"?>
<!-- Generated by IcoMoon.io -->
<!DOCTYPE svg PUBLIC "-//W3C//DTD SVG 1.1//EN" "http://www.w3.org/Graphics/SVG/1.1/DTD/svg11.dtd">
<svg version="1.1" xmlns="http://www.w3.org/2000/svg" xmlns:xlink="http://www.w3.org/1999/xlink" width="32" height="32" viewBox="0 0 32 32">
<path fill="#444444" d="M18.987 16.013l3.093 3.093c0.373-0.967 0.587-2.013 0.587-3.107 0-1.087-0.207-2.127-0.573-3.087l-3.107 3.1zM26.040 8.953l-1.687 1.687c0.833 1.607 1.313 3.427 1.313 5.367s-0.48 3.753-1.313 5.367l1.6 1.6c1.287-2.067 2.047-4.487 2.047-7.087 0-2.547-0.727-4.913-1.96-6.933zM20.94 10.273l-7.607-7.607h-1.333v10.113l-6.113-6.113-1.887 1.887 7.447 7.447-7.447 7.447 1.887 1.887 6.113-6.113v10.113h1.333l7.607-7.607-5.72-5.727 5.72-5.727zM14.667 7.773l2.507 2.507-2.507 2.5v-5.007zM17.173 21.727l-2.507 2.5v-5.013l2.507 2.513z"></path>
</svg>
