<?xml version="1.0" encoding="utf-8"?>
<!-- Generated by IcoMoon.io -->
<!DOCTYPE svg PUBLIC "-//W3C//DTD SVG 1.1//EN" "http://www.w3.org/Graphics/SVG/1.1/DTD/svg11.dtd">
<svg version="1.1" xmlns="http://www.w3.org/2000/svg" xmlns:xlink="http://www.w3.org/1999/xlink" width="32" height="32" viewBox="0 0 32 32">
<path fill="#444444" d="M5.333 10.667h5.333v-5.333h-5.333v5.333zM13.333 26.667h5.333v-5.333h-5.333v5.333zM5.333 26.667h5.333v-5.333h-5.333v5.333zM5.333 18.667h5.333v-5.333h-5.333v5.333zM13.333 18.667h5.333v-5.333h-5.333v5.333zM21.333 5.333v5.333h5.333v-5.333h-5.333zM13.333 10.667h5.333v-5.333h-5.333v5.333zM21.333 18.667h5.333v-5.333h-5.333v5.333zM21.333 26.667h5.333v-5.333h-5.333v5.333z"></path>
</svg>
