<?xml version="1.0" encoding="utf-8"?>
<!-- Generated by IcoMoon.io -->
<!DOCTYPE svg PUBLIC "-//W3C//DTD SVG 1.1//EN" "http://www.w3.org/Graphics/SVG/1.1/DTD/svg11.dtd">
<svg version="1.1" xmlns="http://www.w3.org/2000/svg" xmlns:xlink="http://www.w3.org/1999/xlink" width="32" height="32" viewBox="0 0 32 32">
<path fill="#444444" d="M12 21.333h8.667c1.84 0 3.333-1.493 3.333-3.333s-1.493-3.333-3.333-3.333h-0.067c-0.327-2.26-2.253-4-4.6-4-1.867 0-3.467 1.107-4.213 2.693h-0.22c-2.007 0.213-3.567 1.913-3.567 3.973 0 2.207 1.793 4 4 4zM28 4h-24c-1.473 0-2.667 1.193-2.667 2.667v18.667c0 1.473 1.193 2.667 2.667 2.667h24c1.473 0 2.667-1.193 2.667-2.667v-18.667c0-1.473-1.193-2.667-2.667-2.667zM28 25.353h-24v-18.707h24v18.707z"></path>
</svg>
