<?xml version="1.0" encoding="utf-8"?>
<!-- Generated by IcoMoon.io -->
<!DOCTYPE svg PUBLIC "-//W3C//DTD SVG 1.1//EN" "http://www.w3.org/Graphics/SVG/1.1/DTD/svg11.dtd">
<svg version="1.1" xmlns="http://www.w3.org/2000/svg" xmlns:xlink="http://www.w3.org/1999/xlink" width="32" height="32" viewBox="0 0 32 32">
<path fill="#444444" d="M20 8h-16v2.667h16v-2.667zM20 13.333h-16v2.667h16v-2.667zM4 21.333h10.667v-2.667h-10.667v2.667zM22.667 8v10.913c-0.42-0.153-0.86-0.247-1.333-0.247-2.207 0-4 1.793-4 4s1.793 4 4 4 4-1.793 4-4v-12h4v-2.667h-6.667z"></path>
</svg>
