<?xml version="1.0" encoding="utf-8"?>
<!-- Generated by IcoMoon.io -->
<!DOCTYPE svg PUBLIC "-//W3C//DTD SVG 1.1//EN" "http://www.w3.org/Graphics/SVG/1.1/DTD/svg11.dtd">
<svg version="1.1" xmlns="http://www.w3.org/2000/svg" xmlns:xlink="http://www.w3.org/1999/xlink" width="32" height="32" viewBox="0 0 32 32">
<path fill="#444444" d="M8 4h-4v4c2.207 0 4-1.793 4-4zM18.667 4h-2.667c0 6.627-5.373 12-12 12v2.667c8.1 0 14.667-6.567 14.667-14.667zM13.333 4h-2.667c0 3.68-2.987 6.667-6.667 6.667v2.667c5.153 0 9.333-4.18 9.333-9.333zM13.333 28h2.667c0-6.627 5.373-12 12-12v-2.667c-8.1 0-14.667 6.567-14.667 14.667zM24 28h4v-4c-2.207 0-4 1.793-4 4zM18.667 28h2.667c0-3.68 2.987-6.667 6.667-6.667v-2.667c-5.153 0-9.333 4.18-9.333 9.333z"></path>
</svg>
