<?xml version="1.0" encoding="utf-8"?>
<!-- Generated by IcoMoon.io -->
<!DOCTYPE svg PUBLIC "-//W3C//DTD SVG 1.1//EN" "http://www.w3.org/Graphics/SVG/1.1/DTD/svg11.dtd">
<svg version="1.1" xmlns="http://www.w3.org/2000/svg" xmlns:xlink="http://www.w3.org/1999/xlink" width="32" height="32" viewBox="0 0 32 32">
<path fill="#444444" d="M26.667 28c-1.853 0-3.707-0.627-5.333-1.767-3.253 2.28-7.413 2.28-10.667 0-1.627 1.14-3.48 1.767-5.333 1.767h-2.667v2.667h2.667c1.833 0 3.653-0.46 5.333-1.327 3.36 1.727 7.307 1.727 10.667 0 1.68 0.86 3.5 1.327 5.333 1.327h2.667v-2.667h-2.667zM5.26 25.333h0.073c2.133 0 4.033-1.173 5.333-2.667 1.3 1.493 3.2 2.667 5.333 2.667s4.033-1.173 5.333-2.667c1.307 1.493 3.193 2.667 5.333 2.667h0.073l2.527-8.913c0.113-0.34 0.080-0.713-0.080-1.033-0.167-0.32-0.453-0.56-0.8-0.66l-1.72-0.567v-6.16c0-1.473-1.193-2.667-2.667-2.667h-4v-4h-8v4h-4c-1.473 0-2.667 1.193-2.667 2.667v6.16l-1.713 0.56c-0.347 0.107-0.633 0.34-0.8 0.66s-0.193 0.693-0.080 1.033l2.52 8.92zM8 8h16v5.287l-8-2.62-8 2.62v-5.287z"></path>
</svg>
