<?xml version="1.0" encoding="utf-8"?>
<!-- Generated by IcoMoon.io -->
<!DOCTYPE svg PUBLIC "-//W3C//DTD SVG 1.1//EN" "http://www.w3.org/Graphics/SVG/1.1/DTD/svg11.dtd">
<svg version="1.1" xmlns="http://www.w3.org/2000/svg" xmlns:xlink="http://www.w3.org/1999/xlink" width="32" height="32" viewBox="0 0 32 32">
<path fill="#444444" d="M25.333 1.333h-18.667c-1.473 0-2.653 1.193-2.653 2.667l-0.013 17.247c0 0.92 0.467 1.733 1.173 2.213l10.82 7.207 10.82-7.207c0.707-0.48 1.173-1.293 1.173-2.213l0.013-17.247c0-1.473-1.193-2.667-2.667-2.667zM13.333 21.333l-6.667-6.667 1.887-1.887 4.78 4.78 10.113-10.113 1.887 1.887-12 12z"></path>
</svg>
