<?xml version="1.0" encoding="utf-8"?>
<!-- Generated by IcoMoon.io -->
<!DOCTYPE svg PUBLIC "-//W3C//DTD SVG 1.1//EN" "http://www.w3.org/Graphics/SVG/1.1/DTD/svg11.dtd">
<svg version="1.1" xmlns="http://www.w3.org/2000/svg" xmlns:xlink="http://www.w3.org/1999/xlink" width="32" height="32" viewBox="0 0 32 32">
<path fill="#444444" d="M12 14.667h-2.667v2.667h2.667v-2.667zM17.333 20h-2.667v2.667h2.667v-2.667zM12 4h-2.667v2.667h2.667v-2.667zM17.333 14.667h-2.667v2.667h2.667v-2.667zM6.667 4h-2.667v2.667h2.667v-2.667zM17.333 9.333h-2.667v2.667h2.667v-2.667zM22.667 14.667h-2.667v2.667h2.667v-2.667zM17.333 4h-2.667v2.667h2.667v-2.667zM22.667 4h-2.667v2.667h2.667v-2.667zM25.333 17.333h2.667v-2.667h-2.667v2.667zM25.333 22.667h2.667v-2.667h-2.667v2.667zM6.667 9.333h-2.667v2.667h2.667v-2.667zM25.333 4v2.667h2.667v-2.667h-2.667zM25.333 12h2.667v-2.667h-2.667v2.667zM6.667 14.667h-2.667v2.667h2.667v-2.667zM4 28h24v-2.667h-24v2.667zM6.667 20h-2.667v2.667h2.667v-2.667z"></path>
</svg>
