<?xml version="1.0" encoding="utf-8"?>
<!-- Generated by IcoMoon.io -->
<!DOCTYPE svg PUBLIC "-//W3C//DTD SVG 1.1//EN" "http://www.w3.org/Graphics/SVG/1.1/DTD/svg11.dtd">
<svg version="1.1" xmlns="http://www.w3.org/2000/svg" xmlns:xlink="http://www.w3.org/1999/xlink" width="32" height="32" viewBox="0 0 32 32">
<path fill="#444444" d="M6.667 2.667c0-0.733-0.593-1.333-1.333-1.333s-1.333 0.6-1.333 1.333v5.333h-2.667v8h8v-8h-2.667v-5.333zM12 21.333c0 1.74 1.12 3.207 2.667 3.753v5.58h2.667v-5.58c1.547-0.553 2.667-2.013 2.667-3.753v-2.667h-8v2.667zM1.333 21.333c0 1.74 1.12 3.207 2.667 3.753v5.58h2.667v-5.58c1.547-0.553 2.667-2.013 2.667-3.753v-2.667h-8v2.667zM28 8v-5.333c0-0.733-0.593-1.333-1.333-1.333s-1.333 0.6-1.333 1.333v5.333h-2.667v8h8v-8h-2.667zM17.333 2.667c0-0.733-0.593-1.333-1.333-1.333s-1.333 0.6-1.333 1.333v5.333h-2.667v8h8v-8h-2.667v-5.333zM22.667 21.333c0 1.74 1.12 3.207 2.667 3.753v5.58h2.667v-5.58c1.547-0.553 2.667-2.013 2.667-3.753v-2.667h-8v2.667z"></path>
</svg>
