[
  {
    "content_type_id": 1,
    "type": "boolean",
    "name": "siteStop",
    "title": "Остановить сайт",
    "order": 100
  },
  {
    "content_type_id": 1,
    "type": "string",
    "name": "siteName",
    "title": "Имя сайта",
    "order": 100
  },
  {
    "content_type_id": 1,
    "type": "img",
    "name": "favicon",
    "title": "Иконка",
    "order": 100
  },
  {
    "content_type_id": 1,
    "type": "string",
    "name": "logoAnchor",
    "title": "Ссылка логотипа",
    "order": 100
  },
  {
    "content_type_id": 1,
    "type": "phone",
    "name": "phone",
    "title": "Номер телефона",
    "order": 100
  },
  {
    "content_type_id": 1,
    "type": "string",
    "name": "addr",
    "title": "Адрес",
    "order": 100
  },
  {
    "content_type_id": 1,
    "type": "email",
    "name": "email",
    "title": "Email",
    "order": 100
  },
  {
    "content_type_id": 1,
    "type": "string",
    "name": "theme",
    "title": "Шаблон",
    "order": 100
  },
  {
    "content_type_id": 1,
    "type": "int",
    "name": "anchorScrollTime",
    "title": "Скорость анимации прокрутки",
    "order": 100
  },
  {
    "content_type_id": 1,
    "type": "text",
    "name": "metrika",
    "title": "Код yandex-metrika",
    "order": 100
  },
  {
    "content_type_id": 1,
    "type": "text",
    "name": "dopScripts",
    "title": "Дополнительные скрипты",
    "order": 100
  },
  {
    "content_type_id": 1,
    "type": "boolean",
    "name": "noIndex",
    "title": "Запрет индексации",
    "order": 100
  },
  {
    "content_type_id": 1,
    "type": "boolean",
    "name": "emailSend",
    "title": "Отсылать Email",
    "order": 100
  },
  {
    "content_type_id": 1,
    "type": "string",
    "name": "emailAdress",
    "title": "Ящик для Email",
    "order": 100
  },
  {
    "content_type_id": 1,
    "type": "boolean",
    "name": "smsSend",
    "title": "Отсылать СМС",
    "order": 100
  },
  {
    "content_type_id": 1,
    "type": "string",
    "name": "smsPhone",
    "title": "Номер для СМС",
    "order": 100
  },
  {
    "content_type_id": 1,
    "type": "string",
    "name": "smsSender",
    "title": "Номер подписи для СМС",
    "order": 100
  }
]