[
  {
    "content_type_id": 50,
    "type": "string",
    "name": "name",
    "title": "Имя",
    "order": 100
  },
  {
    "content_type_id": 50,
    "type": "string",
    "name": "phone",
    "title": "Телефон",
    "order": 100
  },
  {
    "content_type_id": 50,
    "type": "html",
    "name": "text",
    "title": "text",
    "order": 100
  },
  {
    "content_type_id": 50,
    "type": "boolean",
    "name": "isNew",
    "title": "Новый",
    "order": 100
  }
]