[
  {
    "content_type_id": 500,
    "type": "img",
    "name": "bg",
    "title": "Фоновая картинка",
    "order": 100
  },
  {
    "content_type_id": 500,
    "type": "string",
    "name": "title",
    "title": "Заголовок",
    "order": 100
  },
  {
    "content_type_id": 500,
    "type": "group",
    "editable": true,
    "group_type_id": 501,
    "name": "items",
    "title": "Работы",
    "order": 100
  },

  {
    "content_type_id": 501,
    "type": "string",
    "name": "title",
    "title": "Заголовок",
    "order": 100
  },
  {
    "content_type_id": 501,
    "type": "html",
    "name": "text",
    "title": "Текст",
    "order": 100
  },
  {
    "content_type_id": 501,
    "type": "img",
    "name": "img",
    "title": "Картинка",
    "order": 100
  },
  {
    "content_type_id": 501,
    "type": "gallery",
    "name": "gallery",
    "title": "Галлерея",
    "order": 100
  }
]