[{
        "type_id": 2,
        "name": "items",
        "group": "block-topMenu-data",
        "parent_group": "block-topMenu",
        "title": "Меню",
        "published": true,
        "value": {
            "slogan": "Ростов-на-дону, ",
            "phone": "7 (987) 98765432",
            "logoText1": "Lo",
            "logoText2": "_GO",
            "items": "topMenu-items"
        }
    },

    {
        "type_id": 3,
        "group": "topMenu-items",
        "published": true,
        "value": {
            "title": "О нас",
            "link": "#about"
        }
    },
    {
        "type_id": 3,
        "group": "topMenu-items",
        "published": true,
        "value": {
            "title": "Преимущества",
            "link": "#whyUs"
        }
    },
    {
        "type_id": 3,
        "group": "topMenu-items",
        "published": true,
        "value": {
            "title": "Наши работы",
            "link": "#works"
        }
    },
    {
        "type_id": 3,
        "group": "topMenu-items",
        "published": true,
        "value": {
            "title": "Контакты",
            "link": "#contacts"
        }
    }
]