[
  {
    "gallery_id": 2,
    "img": "tinymce/upload/site/mr/promo1/bg.jpg",
    "published": true
  },
  {
    "gallery_id": 2,
    "img": "tinymce/upload/site/mr/promo1/bg.jpg",
    "published": true
  }
]